Pre/Verilog_Circ/comp_cpu_checker/nmsl.vcd
$date
	Thu Sep 23 00:16:05 2021
$end
$version
	Icarus Verilog
$end
$timescale
	1ps
$end
$scope module tb $end
$var wire 2 ! format_type [1:0] $end
$var wire 4 " error_code [3:0] $end
$var reg 8 # char [7:0] $end
$var reg 1 $ clk $end
$var reg 1 % finish $end
$var reg 16 & freq [15:0] $end
$var reg 1 ' reset $end
$scope module uut $end
$var wire 8 ( char [7:0] $end
$var wire 1 $ clk $end
$var wire 16 ) freq [15:0] $end
$var wire 1 ' reset $end
$var wire 2 * format_type [1:0] $end
$var wire 4 + error_code [3:0] $end
$var reg 21 , T [20:0] $end
$var reg 33 - addr [32:0] $end
$var reg 1 . e_addr $end
$var reg 1 / e_gref $end
$var reg 1 0 e_pc $end
$var reg 1 1 e_time $end
$var reg 21 2 gref [20:0] $end
$var reg 33 3 pc [32:0] $end
$var reg 5 4 s [4:0] $end
$var reg 4 5 times [3:0] $end
$scope function isnum $end
$var reg 8 6 c [7:0] $end
$upscope $end
$scope function isx $end
$var reg 8 7 x [7:0] $end
$upscope $end
$scope function xtoh $end
$var reg 8 8 a [7:0] $end
$upscope $end
$upscope $end
$upscope $end
$enddefinitions $end
#0
$dumpvars
bx 8
bx 7
bx 6
b0 5
b0 4
b0 3
b0 2
01
00
0/
0.
b0 -
b0 ,
b0 +
b0 *
b1000 )
b0 (
1'
b1000 &
0%
0$
b0 #
b0 "
b0 !
$end
#1000
1$
#2000
0$
#3000
1$
#4000
0$
#5000
1$
#6000
0$
#7000
1$
#8000
0$
#9000
1$
#10000
0$
0'
#11000
1$
#12000
0$
b1011110 #
b1011110 (
#13000
b1 4
1$
#14000
0$
b110010 #
b110010 (
#15000
b10 ,
b1 5
b110010 6
1$
#16000
0$
b110100 #
b110100 (
#17000
b11000 ,
b10 5
b110100 6
1$
#18000
0$
b110010 #
b110010 (
#19000
b11110010 ,
b11 5
b110010 6
1$
#20000
0$
b1000000 #
b1000000 (
#21000
b10 4
b0 5
b1000000 6
1$
#22000
0$
b1100110 #
b1100110 (
#23000
b1111 3
b1 5
b1100110 8
b1100110 7
1$
#24000
0$
b111001 #
b111001 (
#25000
b11111001 3
b10 5
b111001 8
b111001 7
1$
#26000
0$
b110111 #
b110111 (
#27000
b111110010111 3
b11 5
b110111 8
b110111 7
1$
#28000
0$
b1100001 #
b1100001 (
#29000
b1111100101111010 3
b100 5
b1100001 8
b1100001 7
1$
#30000
0$
b1100100 #
b1100100 (
#31000
b11111001011110101101 3
b101 5
b1100100 8
b1100100 7
1$
#32000
0$
b1100101 #
b1100101 (
#33000
b111110010111101011011110 3
b110 5
b1100101 8
b1100101 7
1$
#34000
0$
b1100100 #
b1100100 (
#35000
b1111100101111010110111101101 3
b111 5
b1100100 8
b1100100 7
1$
#36000
0$
b110000 #
b110000 (
#37000
b11111001011110101101111011010000 3
b1000 5
b110000 8
b110000 7
1$
#38000
0$
b111010 #
b111010 (
#39000
b11 4
b0 5
10
b111010 7
1$
#40000
0$
b101010 #
b101010 (
#41000
b1010 4
1$
#42000
0$
b1100010 #
b1100010 (
#43000
b1011 -
b1 5
b1100010 8
b1100010 7
1$
#44000
0$
b111001 #
b111001 (
#45000
b10111001 -
b10 5
b111001 8
b111001 7
1$
#46000
0$
b1100110 #
b1100110 (
#47000
b101110011111 -
b11 5
b1100110 8
b1100110 7
1$
#48000
0$
b1100010 #
b1100010 (
#49000
b1011100111111011 -
b100 5
b1100010 8
b1100010 7
1$
#50000
0$
b110010 #
b110010 (
#51000
b10111001111110110010 -
b101 5
b110010 8
b110010 7
1$
#52000
0$
b111001 #
b111001 (
#53000
b101110011111101100101001 -
b110 5
b111001 8
b111001 7
1$
#54000
0$
b110010 #
b110010 (
#55000
b1011100111111011001010010010 -
b111 5
b110010 8
b110010 7
1$
#56000
0$
b1100010 #
b1100010 (
#57000
b10111001111110110010100100101011 -
b1000 5
b1100010 8
b1100010 7
1$
#58000
0$
b111100 #
b111100 (
#59000
b1100 4
b0 5
b111100 7
1$
#60000
0$
b111101 #
b111101 (
#61000
b1101 4
1.
1$
#62000
0$
b100000 #
b100000 (
#63000
1$
#64000
0$
b110011 #
b110011 (
#65000
b1110 4
b1 5
b110011 7
1$
#66000
0$
b1100101 #
b1100101 (
#67000
b10 5
b1100101 7
1$
#68000
0$
b1100010 #
b1100010 (
#69000
b11 5
b1100010 7
1$
#70000
0$
b1100001 #
b1100001 (
#71000
b100 5
b1100001 7
1$
#72000
0$
b111001 #
b111001 (
#73000
b101 5
b111001 7
1$
#74000
0$
b111000 #
b111000 (
#75000
b110 5
b111000 7
1$
#76000
0$
b110011 #
b110011 (
#77000
b111 5
b110011 7
1$
#78000
0$
b1100001 #
b1100001 (
#79000
b1000 5
b1100001 7
1$
#80000
0$
b100011 #
b100011 (
#81000
b110 "
b110 +
b10 !
b10 *
b1111 4
b0 5
b100011 7
1$
#82000
0$
#83000
b0 "
b0 +
b0 !
b0 *
b0 4
b0 ,
1$
#84000
0$
#85000
b0 -
b0 3
0.
00
1$
#86000
0$
#87000
1$
#88000
0$
#89000
1$
#90000
0$
#91000
1$
#92000
0$
#93000
1$
#94000
0$
#95000
1$
#96000
0$
#97000
1$
#98000
0$
#99000
1$
#100000
0$
1%
