Pre/Verilog_Circ/Char_Automachine_wave.vcd
$date
	Fri Sep 17 14:46:42 2021
$end
$version
	Icarus Verilog
$end
$timescale
	1ns
$end
$scope module Char_Automachine_tb $end
$var wire 1 ! ans $end
$var reg 8 " char [7:0] $end
$var reg 1 # clk $end
$scope module test $end
$var wire 8 $ char [7:0] $end
$var wire 1 # clk $end
$var wire 1 ! out $end
$var reg 2 % next_status [1:0] $end
$var reg 2 & status [1:0] $end
$upscope $end
$upscope $end
$enddefinitions $end
#0
$dumpvars
b0 &
b0 %
bx $
0#
bx "
0!
$end
#1
b1 %
b1100001 "
b1100001 $
#10
b1 &
1#
#20
0#
#21
b1100010 "
b1100010 $
#30
1#
#40
0#
#41
b1100011 "
b1100011 $
#50
1#
#60
0#
#61
b1100100 "
b1100100 $
#70
1#
#80
0#
#81
b10 %
b110001 "
b110001 $
#90
1!
b10 &
1#
#100
0#
#101
b110010 "
b110010 $
#110
1#
#120
0#
#121
b110011 "
b110011 $
#130
1#
#140
0#
#141
b110100 "
b110100 $
#150
1#
#160
0#
#161
b0 %
b101111 "
b101111 $
#170
0!
b0 &
1#
#180
0#
#181
b1 %
b1100001 "
b1100001 $
#190
b1 &
1#
#200
0#
#201
b10 %
b110010 "
b110010 $
#210
1!
b10 &
1#
#220
0#
#230
1#
#240
0#
#241
b1 %
b1100001 "
b1100001 $
#250
0!
b1 &
1#
#260
0#
#261
b0 %
b101111 "
b101111 $
#270
b0 &
1#
#280
0#
#281
b110010 "
b110010 $
