Pre/Verilog_Circ/clock_pulse.vcd
$date
	Thu Sep 16 13:08:57 2021
$end
$version
	Icarus Verilog
$end
$timescale
	1ns
$end
$scope module clock_pulse $end
$var wire 32 ! print [31:0] $end
$var reg 1 " clock $end
$scope module ins $end
$var wire 1 " clk $end
$var wire 32 # out [31:0] $end
$var reg 32 $ cnt [31:0] $end
$upscope $end
$upscope $end
$enddefinitions $end
#0
$dumpvars
b1 $
b1 #
1"
b1 !
$end
#10
0"
#20
b10 !
b10 #
b10 $
1"
#30
0"
#40
b11 !
b11 #
b11 $
1"
#50
0"
#60
b100 !
b100 #
b100 $
1"
#70
0"
#80
b101 !
b101 #
b101 $
1"
#90
0"
#100
b110 !
b110 #
b110 $
1"
#110
0"
#120
b111 !
b111 #
b111 $
1"
#130
0"
#140
b1000 !
b1000 #
b1000 $
1"
#150
0"
#160
b1001 !
b1001 #
b1001 $
1"
#170
0"
#180
b1010 !
b1010 #
b1010 $
1"
#190
0"
#200
b1011 !
b1011 #
b1011 $
1"
#210
0"
#220
b1100 !
b1100 #
b1100 $
1"
#230
0"
#240
b1101 !
b1101 #
b1101 $
1"
#250
0"
#260
b1110 !
b1110 #
b1110 $
1"
#270
0"
#280
b1111 !
b1111 #
b1111 $
1"
#290
0"
#300
b10000 !
b10000 #
b10000 $
1"
#310
0"
#320
b10001 !
b10001 #
b10001 $
1"
#330
0"
#340
b10010 !
b10010 #
b10010 $
1"
#350
0"
#360
b10011 !
b10011 #
b10011 $
1"
#370
0"
#380
b10100 !
b10100 #
b10100 $
1"
#390
0"
#400
b10101 !
b10101 #
b10101 $
1"
#410
0"
#420
b10110 !
b10110 #
b10110 $
1"
#430
0"
#440
b10111 !
b10111 #
b10111 $
1"
#450
0"
#460
b11000 !
b11000 #
b11000 $
1"
#470
0"
#480
b11001 !
b11001 #
b11001 $
1"
#490
0"
#500
b11010 !
b11010 #
b11010 $
1"
#510
0"
#520
b11011 !
b11011 #
b11011 $
1"
#530
0"
#540
b11100 !
b11100 #
b11100 $
1"
#550
0"
#560
b11101 !
b11101 #
b11101 $
1"
#570
0"
#580
b11110 !
b11110 #
b11110 $
1"
#590
0"
#600
b11111 !
b11111 #
b11111 $
1"
#610
0"
#620
b100000 !
b100000 #
b100000 $
1"
#630
0"
#640
b100001 !
b100001 #
b100001 $
1"
#650
0"
#660
b100010 !
b100010 #
b100010 $
1"
#670
0"
#680
b100011 !
b100011 #
b100011 $
1"
#690
0"
#700
b100100 !
b100100 #
b100100 $
1"
#710
0"
#720
b100101 !
b100101 #
b100101 $
1"
#730
0"
#740
b100110 !
b100110 #
b100110 $
1"
#750
0"
#760
b100111 !
b100111 #
b100111 $
1"
#770
0"
#780
b101000 !
b101000 #
b101000 $
1"
#790
0"
#800
b101001 !
b101001 #
b101001 $
1"
#810
0"
#820
b101010 !
b101010 #
b101010 $
1"
#830
0"
#840
b101011 !
b101011 #
b101011 $
1"
#850
0"
#860
b101100 !
b101100 #
b101100 $
1"
#870
0"
#880
b101101 !
b101101 #
b101101 $
1"
#890
0"
#900
b101110 !
b101110 #
b101110 $
1"
#910
0"
#920
b101111 !
b101111 #
b101111 $
1"
#930
0"
#940
b110000 !
b110000 #
b110000 $
1"
#950
0"
#960
b110001 !
b110001 #
b110001 $
1"
#970
0"
#980
b110010 !
b110010 #
b110010 $
1"
#990
0"
#1000
b110011 !
b110011 #
b110011 $
1"
#1010
0"
#1020
b110100 !
b110100 #
b110100 $
1"
#1030
0"
#1040
b110101 !
b110101 #
b110101 $
1"
#1050
0"
#1060
b110110 !
b110110 #
b110110 $
1"
#1070
0"
#1080
b110111 !
b110111 #
b110111 $
1"
#1090
0"
#1100
b111000 !
b111000 #
b111000 $
1"
#1110
0"
#1120
b111001 !
b111001 #
b111001 $
1"
#1130
0"
#1140
b111010 !
b111010 #
b111010 $
1"
#1150
0"
#1160
b111011 !
b111011 #
b111011 $
1"
#1170
0"
#1180
b111100 !
b111100 #
b111100 $
1"
#1190
0"
#1200
b111101 !
b111101 #
b111101 $
1"
#1210
0"
#1220
b111110 !
b111110 #
b111110 $
1"
#1230
0"
#1240
b111111 !
b111111 #
b111111 $
1"
#1250
0"
#1260
b1000000 !
b1000000 #
b1000000 $
1"
#1270
0"
#1280
b1000001 !
b1000001 #
b1000001 $
1"
#1290
0"
#1300
b1000010 !
b1000010 #
b1000010 $
1"
#1310
0"
#1320
b1000011 !
b1000011 #
b1000011 $
1"
#1330
0"
#1340
b1000100 !
b1000100 #
b1000100 $
1"
#1350
0"
#1360
b1000101 !
b1000101 #
b1000101 $
1"
#1370
0"
#1380
b1000110 !
b1000110 #
b1000110 $
1"
#1390
0"
#1400
b1000111 !
b1000111 #
b1000111 $
1"
#1410
0"
#1420
b1001000 !
b1001000 #
b1001000 $
1"
#1430
0"
#1440
b1001001 !
b1001001 #
b1001001 $
1"
#1450
0"
#1460
b1001010 !
b1001010 #
b1001010 $
1"
#1470
0"
#1480
b1001011 !
b1001011 #
b1001011 $
1"
#1490
0"
#1500
b1001100 !
b1001100 #
b1001100 $
1"
#1510
0"
#1520
b1001101 !
b1001101 #
b1001101 $
1"
#1530
0"
#1540
b1001110 !
b1001110 #
b1001110 $
1"
#1550
0"
#1560
b1001111 !
b1001111 #
b1001111 $
1"
#1570
0"
#1580
b1010000 !
b1010000 #
b1010000 $
1"
#1590
0"
#1600
b1010001 !
b1010001 #
b1010001 $
1"
#1610
0"
#1620
b1010010 !
b1010010 #
b1010010 $
1"
#1630
0"
#1640
b1010011 !
b1010011 #
b1010011 $
1"
#1650
0"
#1660
b1010100 !
b1010100 #
b1010100 $
1"
#1670
0"
#1680
b1010101 !
b1010101 #
b1010101 $
1"
#1690
0"
#1700
b1010110 !
b1010110 #
b1010110 $
1"
#1710
0"
#1720
b1010111 !
b1010111 #
b1010111 $
1"
#1730
0"
#1740
b1011000 !
b1011000 #
b1011000 $
1"
#1750
0"
#1760
b1011001 !
b1011001 #
b1011001 $
1"
#1770
0"
#1780
b1011010 !
b1011010 #
b1011010 $
1"
#1790
0"
#1800
b1011011 !
b1011011 #
b1011011 $
1"
#1810
0"
#1820
b1011100 !
b1011100 #
b1011100 $
1"
#1830
0"
#1840
b1011101 !
b1011101 #
b1011101 $
1"
#1850
0"
#1860
b1011110 !
b1011110 #
b1011110 $
1"
#1870
0"
#1880
b1011111 !
b1011111 #
b1011111 $
1"
#1890
0"
#1900
b1100000 !
b1100000 #
b1100000 $
1"
#1910
0"
#1920
b1100001 !
b1100001 #
b1100001 $
1"
#1930
0"
#1940
b1100010 !
b1100010 #
b1100010 $
1"
#1950
0"
#1960
b1100011 !
b1100011 #
b1100011 $
1"
#1970
0"
#1980
b1100100 !
b1100100 #
b1100100 $
1"
#1990
0"
#2000
b1100101 !
b1100101 #
b1100101 $
1"
#2010
0"
#2020
b1100110 !
b1100110 #
b1100110 $
1"
#2030
0"
#2040
b1100111 !
b1100111 #
b1100111 $
1"
#2050
0"
#2060
b1101000 !
b1101000 #
b1101000 $
1"
#2070
0"
#2080
b1101001 !
b1101001 #
b1101001 $
1"
#2090
0"
#2100
b1101010 !
b1101010 #
b1101010 $
1"
#2110
0"
#2120
b1101011 !
b1101011 #
b1101011 $
1"
#2130
0"
#2140
b1101100 !
b1101100 #
b1101100 $
1"
#2150
0"
#2160
b1101101 !
b1101101 #
b1101101 $
1"
#2170
0"
#2180
b1101110 !
b1101110 #
b1101110 $
1"
#2190
0"
#2200
b1101111 !
b1101111 #
b1101111 $
1"
#2210
0"
#2220
b1110000 !
b1110000 #
b1110000 $
1"
#2230
0"
#2240
b1110001 !
b1110001 #
b1110001 $
1"
#2250
0"
#2260
b1110010 !
b1110010 #
b1110010 $
1"
#2270
0"
#2280
b1110011 !
b1110011 #
b1110011 $
1"
#2290
0"
#2300
b1110100 !
b1110100 #
b1110100 $
1"
#2310
0"
#2320
b1110101 !
b1110101 #
b1110101 $
1"
#2330
0"
#2340
b1110110 !
b1110110 #
b1110110 $
1"
#2350
0"
#2360
b1110111 !
b1110111 #
b1110111 $
1"
#2370
0"
#2380
b1111000 !
b1111000 #
b1111000 $
1"
#2390
0"
#2400
b1111001 !
b1111001 #
b1111001 $
1"
#2410
0"
#2420
b1111010 !
b1111010 #
b1111010 $
1"
#2430
0"
#2440
b1111011 !
b1111011 #
b1111011 $
1"
#2450
0"
#2460
b1111100 !
b1111100 #
b1111100 $
1"
#2470
0"
#2480
b1111101 !
b1111101 #
b1111101 $
1"
#2490
0"
#2500
b1111110 !
b1111110 #
b1111110 $
1"
#2510
0"
#2520
b1111111 !
b1111111 #
b1111111 $
1"
#2530
0"
#2540
b10000000 !
b10000000 #
b10000000 $
1"
#2550
0"
#2560
b10000001 !
b10000001 #
b10000001 $
1"
#2570
0"
#2580
b10000010 !
b10000010 #
b10000010 $
1"
#2590
0"
#2600
b10000011 !
b10000011 #
b10000011 $
1"
#2610
0"
#2620
b10000100 !
b10000100 #
b10000100 $
1"
#2630
0"
#2640
b10000101 !
b10000101 #
b10000101 $
1"
#2650
0"
#2660
b10000110 !
b10000110 #
b10000110 $
1"
#2670
0"
#2680
b10000111 !
b10000111 #
b10000111 $
1"
#2690
0"
#2700
b10001000 !
b10001000 #
b10001000 $
1"
#2710
0"
#2720
b10001001 !
b10001001 #
b10001001 $
1"
#2730
0"
#2740
b10001010 !
b10001010 #
b10001010 $
1"
#2750
0"
#2760
b10001011 !
b10001011 #
b10001011 $
1"
#2770
0"
#2780
b10001100 !
b10001100 #
b10001100 $
1"
#2790
0"
#2800
b10001101 !
b10001101 #
b10001101 $
1"
#2810
0"
#2820
b10001110 !
b10001110 #
b10001110 $
1"
#2830
0"
#2840
b10001111 !
b10001111 #
b10001111 $
1"
#2850
0"
#2860
b10010000 !
b10010000 #
b10010000 $
1"
#2870
0"
#2880
b10010001 !
b10010001 #
b10010001 $
1"
#2890
0"
#2900
b10010010 !
b10010010 #
b10010010 $
1"
#2910
0"
#2920
b10010011 !
b10010011 #
b10010011 $
1"
#2930
0"
#2940
b10010100 !
b10010100 #
b10010100 $
1"
#2950
0"
#2960
b10010101 !
b10010101 #
b10010101 $
1"
#2970
0"
#2980
b10010110 !
b10010110 #
b10010110 $
1"
#2990
0"
#3000
b10010111 !
b10010111 #
b10010111 $
1"
#3010
0"
#3020
b10011000 !
b10011000 #
b10011000 $
1"
#3030
0"
#3040
b10011001 !
b10011001 #
b10011001 $
1"
#3050
0"
#3060
b10011010 !
b10011010 #
b10011010 $
1"
#3070
0"
#3080
b10011011 !
b10011011 #
b10011011 $
1"
#3090
0"
#3100
b10011100 !
b10011100 #
b10011100 $
1"
#3110
0"
#3120
b10011101 !
b10011101 #
b10011101 $
1"
#3130
0"
#3140
b10011110 !
b10011110 #
b10011110 $
1"
#3150
0"
#3160
b10011111 !
b10011111 #
b10011111 $
1"
#3170
0"
#3180
b10100000 !
b10100000 #
b10100000 $
1"
#3190
0"
#3200
b10100001 !
b10100001 #
b10100001 $
1"
#3210
0"
#3220
b10100010 !
b10100010 #
b10100010 $
1"
#3230
0"
#3240
b10100011 !
b10100011 #
b10100011 $
1"
#3250
0"
#3260
b10100100 !
b10100100 #
b10100100 $
1"
#3270
0"
#3280
b10100101 !
b10100101 #
b10100101 $
1"
#3290
0"
#3300
b10100110 !
b10100110 #
b10100110 $
1"
#3310
0"
#3320
b10100111 !
b10100111 #
b10100111 $
1"
#3330
0"
#3340
b10101000 !
b10101000 #
b10101000 $
1"
#3350
0"
#3360
b10101001 !
b10101001 #
b10101001 $
1"
#3370
0"
#3380
b10101010 !
b10101010 #
b10101010 $
1"
#3390
0"
#3400
b10101011 !
b10101011 #
b10101011 $
1"
#3410
0"
#3420
b10101100 !
b10101100 #
b10101100 $
1"
#3430
0"
#3440
b10101101 !
b10101101 #
b10101101 $
1"
#3450
0"
#3460
b10101110 !
b10101110 #
b10101110 $
1"
#3470
0"
#3480
b10101111 !
b10101111 #
b10101111 $
1"
#3490
0"
#3500
b10110000 !
b10110000 #
b10110000 $
1"
#3510
0"
#3520
b10110001 !
b10110001 #
b10110001 $
1"
#3530
0"
#3540
b10110010 !
b10110010 #
b10110010 $
1"
#3550
0"
#3560
b10110011 !
b10110011 #
b10110011 $
1"
#3570
0"
#3580
b10110100 !
b10110100 #
b10110100 $
1"
#3590
0"
#3600
b10110101 !
b10110101 #
b10110101 $
1"
#3610
0"
#3620
b10110110 !
b10110110 #
b10110110 $
1"
#3630
0"
#3640
b10110111 !
b10110111 #
b10110111 $
1"
#3650
0"
#3660
b10111000 !
b10111000 #
b10111000 $
1"
#3670
0"
#3680
b10111001 !
b10111001 #
b10111001 $
1"
#3690
0"
#3700
b10111010 !
b10111010 #
b10111010 $
1"
#3710
0"
#3720
b10111011 !
b10111011 #
b10111011 $
1"
#3730
0"
#3740
b10111100 !
b10111100 #
b10111100 $
1"
#3750
0"
#3760
b10111101 !
b10111101 #
b10111101 $
1"
#3770
0"
#3780
b10111110 !
b10111110 #
b10111110 $
1"
#3790
0"
#3800
b10111111 !
b10111111 #
b10111111 $
1"
#3810
0"
#3820
b11000000 !
b11000000 #
b11000000 $
1"
#3830
0"
#3840
b11000001 !
b11000001 #
b11000001 $
1"
#3850
0"
#3860
b11000010 !
b11000010 #
b11000010 $
1"
#3870
0"
#3880
b11000011 !
b11000011 #
b11000011 $
1"
#3890
0"
#3900
b11000100 !
b11000100 #
b11000100 $
1"
#3910
0"
#3920
b11000101 !
b11000101 #
b11000101 $
1"
#3930
0"
#3940
b11000110 !
b11000110 #
b11000110 $
1"
#3950
0"
#3960
b11000111 !
b11000111 #
b11000111 $
1"
#3970
0"
#3980
b11001000 !
b11001000 #
b11001000 $
1"
#3990
0"
#4000
b11001001 !
b11001001 #
b11001001 $
1"
#4010
0"
#4020
b11001010 !
b11001010 #
b11001010 $
1"
#4030
0"
#4040
b11001011 !
b11001011 #
b11001011 $
1"
#4050
0"
#4060
b11001100 !
b11001100 #
b11001100 $
1"
#4070
0"
#4080
b11001101 !
b11001101 #
b11001101 $
1"
#4090
0"
#4100
b11001110 !
b11001110 #
b11001110 $
1"
#4110
0"
#4120
b11001111 !
b11001111 #
b11001111 $
1"
#4130
0"
#4140
b11010000 !
b11010000 #
b11010000 $
1"
#4150
0"
#4160
b11010001 !
b11010001 #
b11010001 $
1"
#4170
0"
#4180
b11010010 !
b11010010 #
b11010010 $
1"
#4190
0"
#4200
b11010011 !
b11010011 #
b11010011 $
1"
#4210
0"
#4220
b11010100 !
b11010100 #
b11010100 $
1"
#4230
0"
#4240
b11010101 !
b11010101 #
b11010101 $
1"
#4250
0"
#4260
b11010110 !
b11010110 #
b11010110 $
1"
#4270
0"
#4280
b11010111 !
b11010111 #
b11010111 $
1"
#4290
0"
#4300
b11011000 !
b11011000 #
b11011000 $
1"
#4310
0"
#4320
b11011001 !
b11011001 #
b11011001 $
1"
#4330
0"
#4340
b11011010 !
b11011010 #
b11011010 $
1"
#4350
0"
#4360
b11011011 !
b11011011 #
b11011011 $
1"
#4370
0"
#4380
b11011100 !
b11011100 #
b11011100 $
1"
#4390
0"
#4400
b11011101 !
b11011101 #
b11011101 $
1"
#4410
0"
#4420
b11011110 !
b11011110 #
b11011110 $
1"
#4430
0"
#4440
b11011111 !
b11011111 #
b11011111 $
1"
#4450
0"
#4460
b11100000 !
b11100000 #
b11100000 $
1"
#4470
0"
#4480
b11100001 !
b11100001 #
b11100001 $
1"
#4490
0"
#4500
b11100010 !
b11100010 #
b11100010 $
1"
#4510
0"
#4520
b11100011 !
b11100011 #
b11100011 $
1"
#4530
0"
#4540
b11100100 !
b11100100 #
b11100100 $
1"
#4550
0"
#4560
b11100101 !
b11100101 #
b11100101 $
1"
#4570
0"
#4580
b11100110 !
b11100110 #
b11100110 $
1"
#4590
0"
#4600
b11100111 !
b11100111 #
b11100111 $
1"
#4610
0"
#4620
b11101000 !
b11101000 #
b11101000 $
1"
#4630
0"
#4640
b11101001 !
b11101001 #
b11101001 $
1"
#4650
0"
#4660
b11101010 !
b11101010 #
b11101010 $
1"
#4670
0"
#4680
b11101011 !
b11101011 #
b11101011 $
1"
#4690
0"
#4700
b11101100 !
b11101100 #
b11101100 $
1"
#4710
0"
#4720
b11101101 !
b11101101 #
b11101101 $
1"
#4730
0"
#4740
b11101110 !
b11101110 #
b11101110 $
1"
#4750
0"
#4760
b11101111 !
b11101111 #
b11101111 $
1"
#4770
0"
#4780
b11110000 !
b11110000 #
b11110000 $
1"
#4790
0"
#4800
b11110001 !
b11110001 #
b11110001 $
1"
#4810
0"
#4820
b11110010 !
b11110010 #
b11110010 $
1"
#4830
0"
#4840
b11110011 !
b11110011 #
b11110011 $
1"
#4850
0"
#4860
b11110100 !
b11110100 #
b11110100 $
1"
#4870
0"
#4880
b11110101 !
b11110101 #
b11110101 $
1"
#4890
0"
#4900
b11110110 !
b11110110 #
b11110110 $
1"
#4910
0"
#4920
b11110111 !
b11110111 #
b11110111 $
1"
#4930
0"
#4940
b11111000 !
b11111000 #
b11111000 $
1"
#4950
0"
#4960
b11111001 !
b11111001 #
b11111001 $
1"
#4970
0"
#4980
b11111010 !
b11111010 #
b11111010 $
1"
#4990
0"
#5000
b11111011 !
b11111011 #
b11111011 $
1"
#5010
0"
#5020
b11111100 !
b11111100 #
b11111100 $
1"
#5030
0"
#5040
b11111101 !
b11111101 #
b11111101 $
1"
#5050
0"
#5060
b11111110 !
b11111110 #
b11111110 $
1"
#5070
0"
#5080
b11111111 !
b11111111 #
b11111111 $
1"
#5090
0"
#5100
b100000000 !
b100000000 #
b100000000 $
1"
#5110
0"
#5120
b100000001 !
b100000001 #
b100000001 $
1"
#5130
0"
#5140
b100000010 !
b100000010 #
b100000010 $
1"
#5150
0"
#5160
b100000011 !
b100000011 #
b100000011 $
1"
#5170
0"
#5180
b100000100 !
b100000100 #
b100000100 $
1"
#5190
0"
#5200
b100000101 !
b100000101 #
b100000101 $
1"
#5210
0"
#5220
b100000110 !
b100000110 #
b100000110 $
1"
#5230
0"
#5240
b100000111 !
b100000111 #
b100000111 $
1"
#5250
0"
#5260
b100001000 !
b100001000 #
b100001000 $
1"
#5270
0"
#5280
b100001001 !
b100001001 #
b100001001 $
1"
#5290
0"
#5300
b100001010 !
b100001010 #
b100001010 $
1"
#5310
0"
#5320
b100001011 !
b100001011 #
b100001011 $
1"
#5330
0"
#5340
b100001100 !
b100001100 #
b100001100 $
1"
#5350
0"
#5360
b100001101 !
b100001101 #
b100001101 $
1"
#5370
0"
#5380
b100001110 !
b100001110 #
b100001110 $
1"
#5390
0"
#5400
b100001111 !
b100001111 #
b100001111 $
1"
#5410
0"
#5420
b100010000 !
b100010000 #
b100010000 $
1"
#5430
0"
#5440
b100010001 !
b100010001 #
b100010001 $
1"
#5450
0"
#5460
b100010010 !
b100010010 #
b100010010 $
1"
#5470
0"
#5480
b100010011 !
b100010011 #
b100010011 $
1"
#5490
0"
#5500
b100010100 !
b100010100 #
b100010100 $
1"
#5510
0"
#5520
b100010101 !
b100010101 #
b100010101 $
1"
#5530
0"
#5540
b100010110 !
b100010110 #
b100010110 $
1"
#5550
0"
#5560
b100010111 !
b100010111 #
b100010111 $
1"
#5570
0"
#5580
b100011000 !
b100011000 #
b100011000 $
1"
#5590
0"
#5600
b100011001 !
b100011001 #
b100011001 $
1"
#5610
0"
#5620
b100011010 !
b100011010 #
b100011010 $
1"
#5630
0"
#5640
b100011011 !
b100011011 #
b100011011 $
1"
#5650
0"
#5660
b100011100 !
b100011100 #
b100011100 $
1"
#5670
0"
#5680
b100011101 !
b100011101 #
b100011101 $
1"
#5690
0"
#5700
b100011110 !
b100011110 #
b100011110 $
1"
#5710
0"
#5720
b100011111 !
b100011111 #
b100011111 $
1"
#5730
0"
#5740
b100100000 !
b100100000 #
b100100000 $
1"
#5750
0"
#5760
b100100001 !
b100100001 #
b100100001 $
1"
#5770
0"
#5780
b100100010 !
b100100010 #
b100100010 $
1"
#5790
0"
#5800
b100100011 !
b100100011 #
b100100011 $
1"
#5810
0"
#5820
b100100100 !
b100100100 #
b100100100 $
1"
#5830
0"
#5840
b100100101 !
b100100101 #
b100100101 $
1"
#5850
0"
#5860
b100100110 !
b100100110 #
b100100110 $
1"
#5870
0"
#5880
b100100111 !
b100100111 #
b100100111 $
1"
#5890
0"
#5900
b100101000 !
b100101000 #
b100101000 $
1"
#5910
0"
#5920
b100101001 !
b100101001 #
b100101001 $
1"
#5930
0"
#5940
b100101010 !
b100101010 #
b100101010 $
1"
#5950
0"
#5960
b100101011 !
b100101011 #
b100101011 $
1"
#5970
0"
#5980
b100101100 !
b100101100 #
b100101100 $
1"
#5990
0"
#6000
b100101101 !
b100101101 #
b100101101 $
1"
