Pre/Verilog_Circ/combination_tb.vcd
$date
	Thu Sep 16 14:06:55 2021
$end
$version
	Icarus Verilog
$end
$timescale
	1ps
$end
$scope module testbench $end
$var wire 4 ! ans [3:0] $end
$var reg 4 " a [3:0] $end
$var reg 4 # b [3:0] $end
$var reg 2 $ c [1:0] $end
$var reg 2 % op [1:0] $end
$scope module ins $end
$var wire 4 & inA [3:0] $end
$var wire 4 ' inB [3:0] $end
$var wire 2 ( inC [1:0] $end
$var wire 2 ) op [1:0] $end
$var reg 4 * ans [3:0] $end
$upscope $end
$upscope $end
$enddefinitions $end
#0
$dumpvars
b10 *
b1 )
b10 (
b0 '
b1000 &
b1 %
b10 $
b0 #
b1000 "
b10 !
$end
#20
b1 $
b1 (
b1 #
b1 '
b100 "
b100 &
#40
b1110 !
b1110 *
b0 %
b0 )
b1101 #
b1101 '
b1101 "
b1101 &
#60
b0 !
b0 *
b1 %
b1 )
b10 $
b10 (
b1 "
b1 &
#80
b1110 !
b1110 *
b0 %
b0 )
b1 $
b1 (
b1100 #
b1100 '
b1101 "
b1101 &
#100
b10 !
b10 *
b1 %
b1 )
b1010 #
b1010 '
b101 "
b101 &
#120
b0 !
b0 *
b0 %
b0 )
b10 $
b10 (
b1111 #
b1111 '
b10 "
b10 &
#140
b1000 !
b1000 *
b1 %
b1 )
b0 $
b0 (
b101 #
b101 '
b1000 "
b1000 &
#160
b1111 !
b1111 *
b0 %
b0 )
b11 $
b11 (
b1101 "
b1101 &
#180
b0 !
b0 *
b1 %
b1 )
b10 $
b10 (
b0 #
b0 '
b0 "
b0 &
#200
b11 !
b11 *
b1 $
b1 (
b11 #
b11 '
b110 "
b110 &
#220
b1110 !
b1110 *
b0 %
b0 )
b10 $
b10 (
b101 #
b101 '
b1011 "
b1011 &
#240
b1111 !
b1111 *
b11 $
b11 (
b1111 #
b1111 '
b1101 "
b1101 &
#260
b1110 !
b1110 *
b10 $
b10 (
b1100 #
b1100 '
b1010 "
b1010 &
#280
b1 !
b1 *
b1 %
b1 )
b0 $
b0 (
b1000 #
b1000 '
b1 "
b1 &
#300
b1110 !
b1110 *
b0 %
b0 )
b10 $
b10 (
b110 #
b110 '
b1011 "
b1011 &
#320
b1 !
b1 *
b1 %
b1 )
b11 $
b11 (
b1010 #
b1010 '
b1100 "
b1100 &
#340
b0 !
b0 *
b0 %
b0 )
b1111 #
b1111 '
b101 "
b101 &
#360
b111 !
b111 *
b1 %
b1 )
b1 $
b1 (
b101 #
b101 '
b1110 "
b1110 &
#380
b0 !
b0 *
b11 $
b11 (
b1100 #
b1100 '
b10 "
b10 &
#400
b1111 !
b1111 *
b0 %
b0 )
b111 #
b111 '
b1000 "
b1000 &
#420
b1101 !
b1101 *
b1 $
b1 (
b1001 #
b1001 '
b1011 "
b1011 &
#440
b1 !
b1 *
b10 $
b10 (
b1 #
b1 '
b111 "
b111 &
#460
b0 !
b0 *
b1 %
b1 )
b11 $
b11 (
b1000 #
b1000 '
b10 "
b10 &
#480
b1 !
b1 *
b1 $
b1 (
b1110 #
b1110 '
#500
b1111 !
b1111 *
b0 %
b0 )
b11 #
b11 '
b1111 "
b1111 &
#520
b11 $
b11 (
b1001 #
b1001 '
b1011 "
b1011 &
#540
b1110 !
b1110 *
b10 $
b10 (
b110 #
b110 '
b1000 "
b1000 &
#560
b1 !
b1 *
b1 %
b1 )
b11 $
b11 (
b1010 "
b1010 &
#580
b1111 !
b1111 *
b0 %
b0 )
b11 #
b11 '
b1111 "
b1111 &
#600
b1 !
b1 *
b10 $
b10 (
b1011 #
b1011 '
b111 "
b111 &
#620
b10 !
b10 *
b1 %
b1 )
b1101 #
b1101 '
b1001 "
b1001 &
#640
b0 %
b0 )
b1 $
b1 (
b1111 #
b1111 '
b101 "
b101 &
#660
b0 !
b0 *
b11 $
b11 (
b1010 #
b1010 '
b0 "
b0 &
#680
b110 !
b110 *
b1 %
b1 )
b1 $
b1 (
b1100 "
b1100 &
#700
b0 !
b0 *
b0 %
b0 )
b11 $
b11 (
b1110 #
b1110 '
b110 "
b110 &
#720
b11 !
b11 *
b1 $
b1 (
b1000 #
b1000 '
#740
b100 !
b100 *
b1 %
b1 )
b0 $
b0 (
b11 #
b11 '
b100 "
b100 &
#760
b101 !
b101 *
b1 $
b1 (
b1101 #
b1101 '
b1011 "
b1011 &
#780
b1 !
b1 *
b10 $
b10 (
b1010 #
b1010 '
b110 "
b110 &
#800
b0 !
b0 *
b11 $
b11 (
b100 #
b100 '
#820
b100 !
b100 *
b0 $
b0 (
b1000 #
b1000 '
b100 "
b100 &
#840
b111 !
b111 *
b0 %
b0 )
b1110 #
b1110 '
b111 "
b111 &
#860
b1101 !
b1101 *
b1001 #
b1001 '
b1101 "
b1101 &
#880
b1110 !
b1110 *
b10 $
b10 (
b1101 #
b1101 '
b1010 "
b1010 &
#900
b0 !
b0 *
b1010 #
b1010 '
b11 "
b11 &
#920
b10 !
b10 *
b1 %
b1 )
b1 $
b1 (
b101 "
b101 &
#940
b1 !
b1 *
b0 %
b0 )
b10 $
b10 (
b0 #
b0 '
b110 "
b110 &
#960
b1111 !
b1111 *
b1100 #
b1100 '
b1101 "
b1101 &
#980
b1 !
b1 *
b1 %
b1 )
b11 $
b11 (
b1011 #
b1011 '
b1110 "
b1110 &
#1000
b1 #
b1 '
b1010 "
b1010 &
#1020
b11 !
b11 *
b1 $
b1 (
b0 #
b0 '
b110 "
b110 &
#1040
b1100 !
b1100 *
b0 %
b0 )
b1 #
b1 '
b1001 "
b1001 &
#1060
b1011 !
b1011 *
b0 $
b0 (
b11 #
b11 '
b1011 "
b1011 &
#1080
b111 !
b111 *
b1 %
b1 )
b1 $
b1 (
b1000 #
b1000 '
b1110 "
b1110 &
#1100
b1111 !
b1111 *
b0 %
b0 )
b11 $
b11 (
b110 #
b110 '
#1120
b1110 !
b1110 *
b10 $
b10 (
b1101 #
b1101 '
b1010 "
b1010 &
#1140
b10 !
b10 *
b1 %
b1 )
b1000 #
b1000 '
b1001 "
b1001 &
#1160
b1110 !
b1110 *
b0 %
b0 )
b111 #
b111 '
b1011 "
b1011 &
#1180
b1 !
b1 *
b1001 #
b1001 '
b100 "
b100 &
#1200
b1111 !
b1111 *
b110 #
b110 '
b1111 "
b1111 &
#1220
b10 !
b10 *
b0 $
b0 (
b1101 #
b1101 '
b10 "
b10 &
#1240
b1101 !
b1101 *
b1 $
b1 (
b1001 #
b1001 '
b1010 "
b1010 &
#1260
b1 !
b1 *
b1 %
b1 )
b11 $
b11 (
b1011 #
b1011 '
b1011 "
b1011 &
#1280
b0 !
b0 *
b101 #
b101 '
b110 "
b110 &
#1300
b1111 !
b1111 *
b0 %
b0 )
b1110 #
b1110 '
b1000 "
b1000 &
#1320
b1101 #
b1101 '
#1340
b1110 !
b1110 *
b0 $
b0 (
b1110 "
b1110 &
#1360
b0 !
b0 *
b1 %
b1 )
b1 $
b1 (
b110 #
b110 '
b1 "
b1 &
#1380
b10 !
b10 *
b10 $
b10 (
b11 #
b11 '
b1000 "
b1000 &
#1400
b0 !
b0 *
b0 %
b0 )
b11 $
b11 (
b100 #
b100 '
b10 "
b10 &
#1420
b1 !
b1 *
b1 %
b1 )
b1 $
b1 (
b1000 #
b1000 '
#1440
b0 !
b0 *
b0 %
b0 )
b1011 #
b1011 '
b1 "
b1 &
#1460
b11 $
b11 (
b1 #
b1 '
b111 "
b111 &
#1480
b1000 !
b1000 *
b0 $
b0 (
b110 #
b110 '
b1000 "
b1000 &
#1500
b11 !
b11 *
b1 %
b1 )
b1 $
b1 (
b1 #
b1 '
b110 "
b110 &
#1520
b101 !
b101 *
b101 #
b101 '
b1011 "
b1011 &
#1540
b0 !
b0 *
b11 $
b11 (
b111 #
b111 '
b100 "
b100 &
#1560
b100 !
b100 *
b1 $
b1 (
b1011 #
b1011 '
b1001 "
b1001 &
#1580
b0 !
b0 *
b10 $
b10 (
b1010 #
b1010 '
b1 "
b1 &
#1600
b0 %
b0 )
b1100 #
b1100 '
b11 "
b11 &
#1620
b1110 !
b1110 *
b1111 #
b1111 '
b1000 "
b1000 &
#1640
b1000 !
b1000 *
b0 $
b0 (
b0 #
b0 '
#1660
b101 !
b101 *
b1 %
b1 )
b101 "
b101 &
#1680
b0 !
b0 *
b0 %
b0 )
b10 $
b10 (
b1100 #
b1100 '
b0 "
b0 &
#1700
b1 %
b1 )
b11 $
b11 (
b1 #
b1 '
b101 "
b101 &
#1720
b100 !
b100 *
b1 $
b1 (
b110 #
b110 '
b1001 "
b1001 &
#1740
b1111 !
b1111 *
b0 %
b0 )
b11 $
b11 (
b1010 #
b1010 '
b1101 "
b1101 &
#1760
b1 #
b1 '
b1100 "
b1100 &
#1780
b111 !
b111 *
b1 %
b1 )
b0 $
b0 (
b1110 #
b1110 '
b111 "
b111 &
#1800
b0 !
b0 *
b0 %
b0 )
b10 $
b10 (
b0 #
b0 '
b0 "
b0 &
#1820
b1 !
b1 *
b1 %
b1 )
b11 $
b11 (
b1101 #
b1101 '
b1101 "
b1101 &
#1840
b1110 "
b1110 &
#1860
b1 $
b1 (
b11 #
b11 '
b11 "
b11 &
#1880
b100 !
b100 *
b0 $
b0 (
b101 #
b101 '
b100 "
b100 &
#1900
b1 !
b1 *
b0 %
b0 )
b1 $
b1 (
b1000 #
b1000 '
b10 "
b10 &
#1920
b100 !
b100 *
b0 $
b0 (
b110 #
b110 '
b100 "
b100 &
#1940
b111 !
b111 *
b1010 #
b1010 '
b111 "
b111 &
#1960
b11 !
b11 *
b1 %
b1 )
b10 $
b10 (
b0 #
b0 '
b1100 "
b1100 &
#1980
b1 !
b1 *
b0 %
b0 )
b101 #
b101 '
b110 "
b110 &
#2000
b100 !
b100 *
b1 %
b1 )
b1 $
b1 (
b100 #
b100 '
b1001 "
b1001 &
#2020
b11 !
b11 *
b10 $
b10 (
b111 #
b111 '
b1100 "
b1100 &
#2040
b100 !
b100 *
b0 %
b0 )
b0 $
b0 (
b0 #
b0 '
b100 "
b100 &
#2060
b11 !
b11 *
b1 $
b1 (
b1010 #
b1010 '
b111 "
b111 &
#2080
b1011 !
b1011 *
b1 %
b1 )
b0 $
b0 (
b11 #
b11 '
b1011 "
b1011 &
#2100
b10 !
b10 *
b1 $
b1 (
b1001 #
b1001 '
b100 "
b100 &
#2120
b0 %
b0 )
b111 #
b111 '
#2140
b1 !
b1 *
b1001 #
b1001 '
b10 "
b10 &
#2160
b1111 !
b1111 *
b11 $
b11 (
b11 #
b11 '
b1100 "
b1100 &
#2180
b1110 !
b1110 *
b10 $
b10 (
b1101 #
b1101 '
b1000 "
b1000 &
#2200
b1001 #
b1001 '
b1011 "
b1011 &
#2220
b10 !
b10 *
b1 %
b1 )
b0 #
b0 '
b1001 "
b1001 &
#2240
b1111 !
b1111 *
b0 %
b0 )
b11 $
b11 (
b110 #
b110 '
b1011 "
b1011 &
#2260
b1 %
b1 )
b0 $
b0 (
b1001 #
b1001 '
b1111 "
b1111 &
#2280
b101 !
b101 *
b1111 #
b1111 '
b101 "
b101 &
#2300
b1110 !
b1110 *
b0 %
b0 )
b10 $
b10 (
b111 #
b111 '
b1001 "
b1001 &
#2320
b1011 !
b1011 *
b1 %
b1 )
b0 $
b0 (
b100 #
b100 '
b1011 "
b1011 &
#2340
b0 !
b0 *
b11 $
b11 (
b0 #
b0 '
b110 "
b110 &
#2360
b1 !
b1 *
b10 $
b10 (
b111 #
b111 '
b100 "
b100 &
#2380
b1111 !
b1111 *
b0 %
b0 )
b11 $
b11 (
b1 #
b1 '
b1011 "
b1011 &
#2400
b10 !
b10 *
b1 %
b1 )
b0 $
b0 (
b101 #
b101 '
b10 "
b10 &
#2420
b11 !
b11 *
b0 %
b0 )
b1 $
b1 (
b1111 #
b1111 '
b110 "
b110 &
#2440
b1 %
b1 )
#2460
b1111 !
b1111 *
b0 %
b0 )
b0 #
b0 '
b1110 "
b1110 &
#2480
b10 !
b10 *
b1 %
b1 )
b1001 #
b1001 '
b100 "
b100 &
#2500
b1111 !
b1111 *
b0 %
b0 )
b1 #
b1 '
b1110 "
b1110 &
#2520
b0 !
b0 *
b1 %
b1 )
b11 $
b11 (
b1010 #
b1010 '
b0 "
b0 &
#2540
b1111 !
b1111 *
b0 %
b0 )
b10 $
b10 (
b1110 #
b1110 '
b1101 "
b1101 &
#2560
b1 !
b1 *
b1 %
b1 )
b11 $
b11 (
b1111 #
b1111 '
b1001 "
b1001 &
#2580
b1001 #
b1001 '
b1010 "
b1010 &
#2600
b0 !
b0 *
b1 #
b1 '
b101 "
b101 &
#2620
b1110 !
b1110 *
b0 %
b0 )
b10 $
b10 (
b1010 "
b1010 &
#2640
b101 !
b101 *
b1 %
b1 )
b1 $
b1 (
b1101 #
b1101 '
#2660
b110 !
b110 *
b1001 #
b1001 '
b1101 "
b1101 &
#2680
b1011 !
b1011 *
b0 %
b0 )
b0 $
b0 (
b1101 #
b1101 '
b1011 "
b1011 &
#2700
b0 !
b0 *
b10 $
b10 (
b10 "
b10 &
#2720
b1 $
b1 (
b1011 #
b1011 '
b0 "
b0 &
#2740
b1 %
b1 )
b11 $
b11 (
b1100 #
b1100 '
b110 "
b110 &
#2760
b10 !
b10 *
b10 $
b10 (
b1011 #
b1011 '
b1000 "
b1000 &
#2780
b1100 !
b1100 *
b0 $
b0 (
b1110 #
b1110 '
b1100 "
b1100 &
#2800
b1001 !
b1001 *
b11 #
b11 '
b1001 "
b1001 &
#2820
b11 !
b11 *
b10 $
b10 (
b1001 #
b1001 '
b1100 "
b1100 &
#2840
b1 !
b1 *
b0 %
b0 )
b1110 #
b1110 '
b101 "
b101 &
#2860
b1111 !
b1111 *
b11 $
b11 (
b1101 #
b1101 '
b1000 "
b1000 &
#2880
b0 !
b0 *
b1 %
b1 )
b0 $
b0 (
b101 #
b101 '
b0 "
b0 &
#2900
b0 %
b0 )
b1 $
b1 (
#2920
b1101 !
b1101 *
b0 $
b0 (
b1001 #
b1001 '
b1101 "
b1101 &
#2940
b0 !
b0 *
b1 %
b1 )
b1 $
b1 (
b0 #
b0 '
b0 "
b0 &
#2960
b10 !
b10 *
b0 %
b0 )
b101 #
b101 '
b101 "
b101 &
#2980
b1010 !
b1010 *
b0 $
b0 (
b1100 #
b1100 '
b1010 "
b1010 &
#3000
b1 !
b1 *
b1 %
b1 )
b11 $
b11 (
b110 #
b110 '
#3020
b10 !
b10 *
b1 $
b1 (
b111 #
b111 '
b101 "
b101 &
#3040
b1001 !
b1001 *
b0 %
b0 )
b0 $
b0 (
b110 #
b110 '
b1001 "
b1001 &
#3060
b0 !
b0 *
b1 %
b1 )
b1010 #
b1010 '
b0 "
b0 &
#3080
b1111 !
b1111 *
b0 %
b0 )
b11 $
b11 (
b0 #
b0 '
b1011 "
b1011 &
#3100
b0 !
b0 *
b1101 #
b1101 '
b101 "
b101 &
#3120
b110 !
b110 *
b1 %
b1 )
b1 $
b1 (
b100 #
b100 '
b1100 "
b1100 &
#3140
b1110 !
b1110 *
b0 %
b0 )
b0 $
b0 (
b11 #
b11 '
b1110 "
b1110 &
#3160
b1111 !
b1111 *
b10 $
b10 (
b110 #
b110 '
b1100 "
b1100 &
#3180
b1 !
b1 *
b1 %
b1 )
b1010 #
b1010 '
b101 "
b101 &
#3200
b1 $
b1 (
b1100 #
b1100 '
b10 "
b10 &
#3220
b10 !
b10 *
b10 $
b10 (
b1000 #
b1000 '
b1011 "
b1011 &
#3240
b1111 !
b1111 *
b0 %
b0 )
b1 $
b1 (
b1011 #
b1011 '
b1111 "
b1111 &
#3260
b0 !
b0 *
b1 %
b1 )
b11 $
b11 (
b1111 #
b1111 '
b101 "
b101 &
#3280
b0 %
b0 )
b10 $
b10 (
b1101 #
b1101 '
b0 "
b0 &
#3300
b1 !
b1 *
b1 %
b1 )
b110 #
b110 '
b111 "
b111 &
#3320
b0 %
b0 )
b100 "
b100 &
#3340
b111 !
b111 *
b1 %
b1 )
b1 $
b1 (
b1100 #
b1100 '
b1110 "
b1110 &
#3360
b1 !
b1 *
b11 $
b11 (
b1100 "
b1100 &
#3380
b101 !
b101 *
b1 $
b1 (
b101 #
b101 '
b1011 "
b1011 &
#3400
b1111 !
b1111 *
b0 %
b0 )
b11 $
b11 (
b0 #
b0 '
b1111 "
b1111 &
#3420
b1 !
b1 *
b1 %
b1 )
b1 $
b1 (
b1010 #
b1010 '
b10 "
b10 &
#3440
b111 !
b111 *
b1 #
b1 '
b1110 "
b1110 &
#3460
b1100 !
b1100 *
b0 %
b0 )
b0 $
b0 (
b1000 #
b1000 '
b1100 "
b1100 &
#3480
b0 !
b0 *
b11 $
b11 (
b111 #
b111 '
b101 "
b101 &
#3500
b1101 !
b1101 *
b0 $
b0 (
b1110 #
b1110 '
b1101 "
b1101 &
#3520
b0 !
b0 *
b10 $
b10 (
b110 #
b110 '
b0 "
b0 &
#3540
b1 !
b1 *
b1 %
b1 )
b1110 #
b1110 '
b101 "
b101 &
#3560
b11 $
b11 (
b1011 #
b1011 '
b1011 "
b1011 &
#3580
b0 %
b0 )
b10 $
b10 (
b1010 #
b1010 '
b100 "
b100 &
#3600
b1011 !
b1011 *
b0 $
b0 (
b1011 #
b1011 '
b1011 "
b1011 &
#3620
b110 !
b110 *
b1 %
b1 )
b1 $
b1 (
b1 #
b1 '
b1101 "
b1101 &
#3640
b1110 !
b1110 *
b0 %
b0 )
b10 $
b10 (
b0 #
b0 '
b1001 "
b1001 &
#3660
b0 !
b0 *
b11 $
b11 (
b1000 #
b1000 '
b111 "
b111 &
#3680
b1100 !
b1100 *
b0 $
b0 (
b0 #
b0 '
b1100 "
b1100 &
#3700
b1 !
b1 *
b1 %
b1 )
b1 $
b1 (
b1000 #
b1000 '
b11 "
b11 &
#3720
b1111 !
b1111 *
b0 %
b0 )
b11 $
b11 (
b1111 #
b1111 '
b1000 "
b1000 &
#3740
b1 !
b1 *
b1 %
b1 )
b0 #
b0 '
b1101 "
b1101 &
#3760
b1 $
b1 (
b1100 #
b1100 '
b10 "
b10 &
#3780
b0 !
b0 *
b0 %
b0 )
b0 $
b0 (
b100 #
b100 '
b0 "
b0 &
#3800
b1 !
b1 *
b1 $
b1 (
b11 #
b11 '
b11 "
b11 &
#3820
b1 %
b1 )
b11 $
b11 (
b111 #
b111 '
b1000 "
b1000 &
#3840
b10 !
b10 *
b10 $
b10 (
b1000 #
b1000 '
b1011 "
b1011 &
#3860
b1 !
b1 *
b10 #
b10 '
b111 "
b111 &
#3880
b100 !
b100 *
b0 $
b0 (
b1011 #
b1011 '
b100 "
b100 &
#3900
b101 !
b101 *
b0 %
b0 )
b1010 #
b1010 '
b101 "
b101 &
#3920
b1111 !
b1111 *
b11 $
b11 (
b0 #
b0 '
b1000 "
b1000 &
#3940
b1 !
b1 *
b10 $
b10 (
b1010 #
b1010 '
b101 "
b101 &
#3960
b1011 !
b1011 *
b1 %
b1 )
b0 $
b0 (
b1000 #
b1000 '
b1011 "
b1011 &
#3980
b100 !
b100 *
b1 $
b1 (
b101 #
b101 '
b1000 "
b1000 &
#4000
b1011 !
b1011 *
b0 $
b0 (
b1011 "
b1011 &
#4020
b1111 !
b1111 *
b0 #
b0 '
b1111 "
b1111 &
#4040
b11 !
b11 *
b1 $
b1 (
b1 #
b1 '
b110 "
b110 &
#4060
b10 $
b10 (
b1011 #
b1011 '
b1111 "
b1111 &
#4080
b1000 !
b1000 *
b0 $
b0 (
b1001 #
b1001 '
b1000 "
b1000 &
#4100
b11 !
b11 *
b0 %
b0 )
b100 #
b100 '
b11 "
b11 &
#4120
b0 !
b0 *
b11 $
b11 (
b1111 #
b1111 '
b110 "
b110 &
#4140
b1 !
b1 *
b1 %
b1 )
b1 $
b1 (
b10 "
b10 &
#4160
b101 !
b101 *
b0 %
b0 )
b0 $
b0 (
b101 #
b101 '
b101 "
b101 &
#4180
b1110 !
b1110 *
b1 $
b1 (
b0 #
b0 '
b1100 "
b1100 &
#4200
b11 !
b11 *
b1 %
b1 )
b10 $
b10 (
b1111 #
b1111 '
#4220
b1 !
b1 *
b0 %
b0 )
b1 $
b1 (
b1110 #
b1110 '
b10 "
b10 &
#4240
b10 !
b10 *
b1 %
b1 )
b10 $
b10 (
b10 #
b10 '
b1000 "
b1000 &
#4260
b1111 !
b1111 *
b0 %
b0 )
b11 $
b11 (
b1011 #
b1011 '
b1010 "
b1010 &
#4280
b11 !
b11 *
b1 %
b1 )
b10 $
b10 (
b1 #
b1 '
b1100 "
b1100 &
#4300
b1101 !
b1101 *
b0 %
b0 )
b1 $
b1 (
b1111 #
b1111 '
b1011 "
b1011 &
#4320
b1001 !
b1001 *
b1 %
b1 )
b0 $
b0 (
b1110 #
b1110 '
b1001 "
b1001 &
#4340
b111 #
b111 '
#4360
b101 !
b101 *
b1 $
b1 (
b1001 #
b1001 '
b1011 "
b1011 &
#4380
b0 !
b0 *
b0 %
b0 )
b11 $
b11 (
b110 #
b110 '
b1 "
b1 &
#4400
b1100 #
b1100 '
b10 "
b10 &
#4420
b1111 !
b1111 *
b10 #
b10 '
b1111 "
b1111 &
#4440
b0 !
b0 *
b1 %
b1 )
b0 $
b0 (
b1110 #
b1110 '
b0 "
b0 &
#4460
b0 %
b0 )
b11 $
b11 (
b10 #
b10 '
b10 "
b10 &
#4480
b11 !
b11 *
b1 %
b1 )
b10 $
b10 (
b0 #
b0 '
b1111 "
b1111 &
#4500
b1011 !
b1011 *
b0 $
b0 (
b100 #
b100 '
b1011 "
b1011 &
#4520
b1 !
b1 *
b1 $
b1 (
b1100 #
b1100 '
b11 "
b11 &
#4540
b101 !
b101 *
b0 $
b0 (
b1111 #
b1111 '
b101 "
b101 &
#4560
b1 !
b1 *
b11 $
b11 (
b10 #
b10 '
b1100 "
b1100 &
#4580
b10 !
b10 *
b0 %
b0 )
b1 $
b1 (
b1 #
b1 '
b100 "
b100 &
#4600
b1110 !
b1110 *
b1111 #
b1111 '
b1101 "
b1101 &
#4620
b1111 !
b1111 *
b11 $
b11 (
b10 #
b10 '
b1011 "
b1011 &
#4640
b1110 !
b1110 *
b10 $
b10 (
b0 #
b0 '
b1000 "
b1000 &
#4660
b1111 !
b1111 *
b1010 #
b1010 '
b1100 "
b1100 &
#4680
b11 $
b11 (
b1011 #
b1011 '
b1001 "
b1001 &
#4700
b111 !
b111 *
b1 %
b1 )
b1 $
b1 (
b1100 #
b1100 '
b1110 "
b1110 &
#4720
b0 !
b0 *
b11 $
b11 (
b111 #
b111 '
b10 "
b10 &
#4740
b111 !
b111 *
b1 $
b1 (
b1010 #
b1010 '
b1110 "
b1110 &
#4760
b100 !
b100 *
b0 %
b0 )
b0 $
b0 (
b100 #
b100 '
b100 "
b100 &
#4780
b0 !
b0 *
b1 %
b1 )
b11 $
b11 (
b1100 #
b1100 '
b11 "
b11 &
#4800
b1100 !
b1100 *
b0 $
b0 (
b1101 #
b1101 '
b1100 "
b1100 &
#4820
b1 !
b1 *
b11 $
b11 (
b1000 #
b1000 '
b1111 "
b1111 &
#4840
b1011 !
b1011 *
b0 $
b0 (
b11 #
b11 '
b1011 "
b1011 &
#4860
b1 !
b1 *
b0 %
b0 )
b10 $
b10 (
b1001 #
b1001 '
b110 "
b110 &
#4880
b1100 !
b1100 *
b1 $
b1 (
b110 #
b110 '
b1000 "
b1000 &
#4900
b11 !
b11 *
b1 %
b1 )
b10 $
b10 (
b1101 "
b1101 &
#4920
b1111 !
b1111 *
b0 %
b0 )
b11 $
b11 (
b101 #
b101 '
b1111 "
b1111 &
#4940
b1 $
b1 (
b1001 #
b1001 '
#4960
b1 !
b1 *
b1 %
b1 )
b11 $
b11 (
b1101 #
b1101 '
b1010 "
b1010 &
#4980
b0 !
b0 *
b0 %
b0 )
b1 $
b1 (
b11 #
b11 '
b0 "
b0 &
#5000
b10 $
b10 (
b1001 #
b1001 '
#5020
b1111 !
b1111 *
b0 $
b0 (
b1111 "
b1111 &
#5040
b1110 !
b1110 *
b10 $
b10 (
b0 #
b0 '
b1001 "
b1001 &
#5060
b100 !
b100 *
b1 %
b1 )
b1 $
b1 (
b111 #
b111 '
#5080
b0 !
b0 *
b10 $
b10 (
b11 #
b11 '
b1 "
b1 &
#5100
b11 !
b11 *
b111 #
b111 '
b1110 "
b1110 &
#5120
b1100 !
b1100 *
b0 $
b0 (
b1111 #
b1111 '
b1100 "
b1100 &
#5140
b0 !
b0 *
b10 $
b10 (
b1001 #
b1001 '
b10 "
b10 &
#5160
b110 !
b110 *
b0 $
b0 (
b1010 #
b1010 '
b110 "
b110 &
#5180
b0 !
b0 *
b1 $
b1 (
b1000 #
b1000 '
b0 "
b0 &
#5200
b1101 !
b1101 *
b0 %
b0 )
b1111 #
b1111 '
b1011 "
b1011 &
#5220
b11 !
b11 *
b1 %
b1 )
b10 $
b10 (
b111 #
b111 '
b1111 "
b1111 &
#5240
b10 !
b10 *
b1 $
b1 (
b100 "
b100 &
#5260
b0 !
b0 *
b10 $
b10 (
b1111 #
b1111 '
b11 "
b11 &
#5280
b1 $
b1 (
b1001 #
b1001 '
b0 "
b0 &
#5300
b111 !
b111 *
b1110 #
b1110 '
b1111 "
b1111 &
#5320
b0 !
b0 *
b0 %
b0 )
b10 $
b10 (
b1001 #
b1001 '
b11 "
b11 &
#5340
b1111 !
b1111 *
b11 $
b11 (
b1100 "
b1100 &
#5360
b100 !
b100 *
b1 %
b1 )
b1 $
b1 (
b1000 #
b1000 '
b1000 "
b1000 &
#5380
b1001 !
b1001 *
b0 $
b0 (
b110 #
b110 '
b1001 "
b1001 &
#5400
b1010 !
b1010 *
b0 %
b0 )
b0 #
b0 '
b1010 "
b1010 &
#5420
b110 !
b110 *
b1 %
b1 )
b1 $
b1 (
b1100 "
b1100 &
#5440
b0 !
b0 *
b0 %
b0 )
b0 $
b0 (
b1010 #
b1010 '
b0 "
b0 &
#5460
b110 !
b110 *
b1 %
b1 )
b1 $
b1 (
b1 #
b1 '
b1100 "
b1100 &
#5480
b1 !
b1 *
b0 %
b0 )
b10 $
b10 (
b11 #
b11 '
b101 "
b101 &
#5500
b110 !
b110 *
b1 %
b1 )
b1 $
b1 (
b1000 #
b1000 '
b1100 "
b1100 &
#5520
b0 !
b0 *
b0 %
b0 )
b11 $
b11 (
b11 #
b11 '
b111 "
b111 &
#5540
b10 !
b10 *
b1 $
b1 (
b1110 #
b1110 '
b100 "
b100 &
#5560
b1111 !
b1111 *
b1000 #
b1000 '
b1110 "
b1110 &
#5580
b111 !
b111 *
b1 %
b1 )
b1 #
b1 '
b1111 "
b1111 &
#5600
b11 !
b11 *
b10 $
b10 (
b1000 #
b1000 '
b1100 "
b1100 &
#5620
b0 %
b0 )
b0 $
b0 (
b111 #
b111 '
b11 "
b11 &
#5640
b0 !
b0 *
b1 %
b1 )
b10 $
b10 (
b1100 #
b1100 '
b10 "
b10 &
#5660
b0 %
b0 )
b111 #
b111 '
b1 "
b1 &
#5680
b1 %
b1 )
b11 #
b11 '
b10 "
b10 &
#5700
b1 !
b1 *
b11 $
b11 (
b1 #
b1 '
b1000 "
b1000 &
#5720
b0 !
b0 *
b1 $
b1 (
b1110 #
b1110 '
b1 "
b1 &
#5740
b1111 !
b1111 *
b0 %
b0 )
b11 $
b11 (
b10 #
b10 '
b1000 "
b1000 &
#5760
b1110 !
b1110 *
b1 $
b1 (
b1100 "
b1100 &
#5780
b10 !
b10 *
b1 %
b1 )
b10 $
b10 (
b1101 #
b1101 '
b1000 "
b1000 &
#5800
b1001 !
b1001 *
b0 $
b0 (
b1 #
b1 '
b1001 "
b1001 &
#5820
b10 !
b10 *
b1 $
b1 (
b11 #
b11 '
b100 "
b100 &
#5840
b1111 !
b1111 *
b0 %
b0 )
b10 $
b10 (
b100 #
b100 '
b1110 "
b1110 &
#5860
b1 !
b1 *
b1 %
b1 )
b1000 #
b1000 '
b100 "
b100 &
#5880
b11 $
b11 (
b1011 #
b1011 '
b1101 "
b1101 &
#5900
b1111 !
b1111 *
b0 %
b0 )
b10 $
b10 (
b1001 #
b1001 '
#5920
b11 $
b11 (
b1101 #
b1101 '
b1111 "
b1111 &
#5940
b101 !
b101 *
b1 %
b1 )
b0 $
b0 (
b1001 #
b1001 '
b101 "
b101 &
#5960
b0 !
b0 *
b1 $
b1 (
b111 #
b111 '
b0 "
b0 &
#5980
b110 !
b110 *
b0 $
b0 (
b1111 #
b1111 '
b110 "
b110 &
