Pre/Verilog_Circ/cpu_checker_wave.vcd
$date
	Fri Sep 17 20:41:20 2021
$end
$version
	Icarus Verilog
$end
$timescale
	1ps
$end
$scope module tb $end
$var wire 2 ! format_type [1:0] $end
$var reg 8 " char [7:0] $end
$var reg 1 # clk $end
$var reg 1 $ finish $end
$var reg 16 % freq [15:0] $end
$var reg 1 & reset $end
$scope module uut $end
$var wire 8 ' char [7:0] $end
$var wire 1 # clk $end
$var wire 16 ( freq [15:0] $end
$var wire 1 & reset $end
$var reg 32 ) _addr [31:0] $end
$var reg 32 * _data [31:0] $end
$var reg 32 + _grf [31:0] $end
$var reg 32 , _pc [31:0] $end
$var reg 32 - _time [31:0] $end
$var reg 32 . cnt [31:0] $end
$var reg 4 / error_code [3:0] $end
$var reg 2 0 format_type [1:0] $end
$var reg 7 1 next_state [6:0] $end
$var reg 7 2 state [6:0] $end
$upscope $end
$upscope $end
$enddefinitions $end
#0
$dumpvars
b0 2
b0 1
b0 0
b0 /
b0 .
bx -
bx ,
bx +
bx *
bx )
b100000000 (
b0 '
1&
b10 %
0$
0#
b0 "
b0 !
$end
#1000
b0 +
b0 )
b0 ,
b0 -
1#
#2000
0#
#3000
1#
#4000
0#
#5000
1#
#6000
0#
#7000
1#
#8000
0#
#9000
1#
#10000
0#
0&
#11000
b0 *
1#
#12000
b10110 1
0#
b1011110 "
b1011110 '
#13000
b10110 2
1#
#14000
b1 1
0#
b110010 "
b110010 '
#15000
b10 -
b1 .
b1 2
1#
#16000
0#
b110100 "
b110100 '
#17000
b10 .
b11000 -
1#
#18000
0#
b110010 "
b110010 '
#19000
b11110010 -
b11 .
1#
#20000
0#
#21000
b100 .
b100101110110 -
1#
#22000
b10 1
0#
b1000000 "
b1000000 '
#23000
b0 1
b0 .
b10 2
1#
#24000
b11 1
0#
b110000 "
b110000 '
#25000
b11 2
b1 .
1#
#26000
0#
#27000
b10 .
1#
#28000
0#
#29000
b11 .
1#
#30000
0#
#31000
b100 .
1#
#32000
0#
b110011 "
b110011 '
#33000
b101 .
b11 ,
1#
#34000
0#
b110000 "
b110000 '
#35000
b110000 ,
b110 .
1#
#36000
0#
b1100110 "
b1100110 '
#37000
b111 .
b1100001111 ,
1#
#38000
0#
b110100 "
b110100 '
#39000
b11000011110100 ,
b1000 .
1#
#40000
b100 1
0#
b111010 "
b111010 '
#41000
b0 1
b100 2
b0 .
1#
#42000
b101 1
0#
b100000 "
b100000 '
#43000
b101 2
1#
#44000
b110 1
0#
b101010 "
b101010 '
#45000
b0 1
b110 2
1#
#46000
b111 1
0#
b110011 "
b110011 '
#47000
b11 )
b1 .
b111 2
1#
#48000
0#
b110001 "
b110001 '
#49000
b10 .
b110001 )
1#
#50000
0#
b110011 "
b110011 '
#51000
b1100010011 )
b11 .
1#
#52000
0#
b110001 "
b110001 '
#53000
b100 .
b11000100110001 )
1#
#54000
0#
b110011 "
b110011 '
#55000
b110001001100010011 )
b101 .
1#
#56000
0#
b110001 "
b110001 '
#57000
b110 .
b1100010011000100110001 )
1#
#58000
0#
b110011 "
b110011 '
#59000
b11000100110001001100010011 )
b111 .
1#
#60000
0#
b110001 "
b110001 '
#61000
b1000 .
b110001001100010011000100110001 )
1#
#62000
b1000 1
0#
b100000 "
b100000 '
#63000
b0 .
b1000 2
1#
#64000
b1001 1
0#
b111100 "
b111100 '
#65000
b0 1
b1001 2
1#
#66000
b1010 1
0#
b111101 "
b111101 '
#67000
b0 1
b1010 2
1#
#68000
b1100 1
0#
b110001 "
b110001 '
#69000
b1100 2
b1 .
b1 *
1#
#70000
0#
b110010 "
b110010 '
#71000
b10010 *
b10 .
1#
#72000
0#
b110011 "
b110011 '
#73000
b11 .
b100100011 *
1#
#74000
0#
b110100 "
b110100 '
#75000
b1001000110100 *
b100 .
1#
#76000
0#
b110101 "
b110101 '
#77000
b101 .
b10010001101000101 *
1#
#78000
0#
b110110 "
b110110 '
#79000
b100100011010001010110 *
b110 .
1#
#80000
0#
b110111 "
b110111 '
#81000
b111 .
b1001000110100010101100111 *
1#
#82000
0#
b111000 "
b111000 '
#83000
b10010001101000101011001111000 *
b1000 .
1#
#84000
b1101 1
0#
b100011 "
b100011 '
#85000
b101 /
b10 !
b10 0
b0 1
b1101 2
b0 .
1#
#86000
b10110 1
0#
b1011110 "
b1011110 '
#87000
b0 /
b0 !
b0 0
b0 -
b0 ,
b0 )
b0 *
b10110 2
1#
#88000
b1 1
0#
b110010 "
b110010 '
#89000
b1 2
b1 .
b10 -
1#
#90000
0#
#91000
b10110 -
b10 .
1#
#92000
0#
b110100 "
b110100 '
#93000
b11 .
b11100000 -
1#
#94000
b10 1
0#
b1000000 "
b1000000 '
#95000
b0 1
b0 .
b10 2
1#
#96000
b11 1
0#
b110000 "
b110000 '
#97000
b11 2
b1 .
1#
#98000
0#
#99000
b10 .
1#
#100000
0#
#101000
b11 .
1#
#102000
0#
#103000
b100 .
1#
#104000
0#
b110011 "
b110011 '
#105000
b101 .
b11 ,
1#
#106000
0#
b110000 "
b110000 '
#107000
b110000 ,
b110 .
1#
#108000
0#
b1100110 "
b1100110 '
#109000
b111 .
b1100001111 ,
1#
#110000
0#
b110100 "
b110100 '
#111000
b11000011110100 ,
b1000 .
1#
#112000
b100 1
0#
b111010 "
b111010 '
#113000
b0 1
b100 2
b0 .
1#
#114000
b101 1
0#
b100000 "
b100000 '
#115000
b101 2
1#
#116000
b110 1
0#
b101010 "
b101010 '
#117000
b0 1
b110 2
1#
#118000
b111 1
0#
b110011 "
b110011 '
#119000
b11 )
b1 .
b111 2
1#
#120000
0#
b110001 "
b110001 '
#121000
b10 .
b110001 )
1#
#122000
0#
b110011 "
b110011 '
#123000
b1100010011 )
b11 .
1#
#124000
0#
b110001 "
b110001 '
#125000
b100 .
b11000100110001 )
1#
#126000
0#
b110011 "
b110011 '
#127000
b110001001100010011 )
b101 .
1#
#128000
0#
b110001 "
b110001 '
#129000
b110 .
b1100010011000100110001 )
1#
#130000
0#
b110011 "
b110011 '
#131000
b11000100110001001100010011 )
b111 .
1#
#132000
0#
b110001 "
b110001 '
#133000
b1000 .
b110001001100010011000100110001 )
1#
#134000
b1000 1
0#
b100000 "
b100000 '
#135000
b0 .
b1000 2
1#
#136000
b1001 1
0#
b111100 "
b111100 '
#137000
b0 1
b1001 2
1#
#138000
b1010 1
0#
b111101 "
b111101 '
#139000
b0 1
b1010 2
1#
#140000
b1100 1
0#
b110001 "
b110001 '
#141000
b1100 2
b1 .
b1 *
1#
#142000
0#
b110010 "
b110010 '
#143000
b10010 *
b10 .
1#
#144000
0#
b110011 "
b110011 '
#145000
b11 .
b100100011 *
1#
#146000
0#
b110100 "
b110100 '
#147000
b1001000110100 *
b100 .
1#
#148000
0#
b110101 "
b110101 '
#149000
b101 .
b10010001101000101 *
1#
#150000
0#
b110110 "
b110110 '
#151000
b100100011010001010110 *
b110 .
1#
#152000
0#
b110111 "
b110111 '
#153000
b111 .
b1001000110100010101100111 *
1#
#154000
0#
b111000 "
b111000 '
#155000
b10010001101000101011001111000 *
b1000 .
1#
#156000
b1101 1
0#
b100011 "
b100011 '
#157000
b101 /
b10 !
b10 0
b0 1
b1101 2
b0 .
1#
#158000
b10110 1
0#
b1011110 "
b1011110 '
#159000
b0 /
b0 !
b0 0
b0 -
b0 ,
b0 )
b0 *
b10110 2
1#
#160000
0#
#161000
1#
#162000
b1 1
0#
b110010 "
b110010 '
#163000
b10 -
b1 .
b1 2
1#
#164000
0#
b110100 "
b110100 '
#165000
b10 .
b11000 -
1#
#166000
0#
b110010 "
b110010 '
#167000
b11110010 -
b11 .
1#
#168000
0#
#169000
b100 .
b100101110110 -
1#
#170000
b10 1
0#
b1000000 "
b1000000 '
#171000
b0 1
b0 .
b10 2
1#
#172000
b11 1
0#
b110000 "
b110000 '
#173000
b11 2
b1 .
1#
#174000
0#
#175000
b10 .
1#
#176000
0#
#177000
b11 .
1#
#178000
0#
#179000
b100 .
1#
#180000
0#
b110011 "
b110011 '
#181000
b101 .
b11 ,
1#
#182000
0#
b110000 "
b110000 '
#183000
b110000 ,
b110 .
1#
#184000
0#
b1100110 "
b1100110 '
#185000
b111 .
b1100001111 ,
1#
#186000
0#
b110100 "
b110100 '
#187000
b11000011110100 ,
b1000 .
1#
#188000
b100 1
0#
b111010 "
b111010 '
#189000
b0 1
b100 2
b0 .
1#
#190000
b101 1
0#
b100000 "
b100000 '
#191000
b101 2
1#
#192000
b110 1
0#
b101010 "
b101010 '
#193000
b0 1
b110 2
1#
#194000
b111 1
0#
b110011 "
b110011 '
#195000
b11 )
b1 .
b111 2
1#
#196000
0#
b110001 "
b110001 '
#197000
b10 .
b110001 )
1#
#198000
0#
b110011 "
b110011 '
#199000
b1100010011 )
b11 .
1#
#200000
0#
b110001 "
b110001 '
#201000
b100 .
b11000100110001 )
1#
#202000
0#
b110011 "
b110011 '
#203000
b110001001100010011 )
b101 .
1#
#204000
0#
b110001 "
b110001 '
#205000
b110 .
b1100010011000100110001 )
1#
#206000
0#
#207000
b11000100110001001100010001 )
b111 .
1#
#208000
0#
#209000
b1000 .
b110001001100010011000100010001 )
1#
#210000
0#
#211000
b10011000100110001000100010001 )
b1001 .
1#
#212000
0#
#213000
b1010 .
b110001001100010001000100010001 )
1#
#214000
0#
#215000
b10011000100010001000100010001 )
b1011 .
1#
#216000
0#
#217000
b1100 .
b110001000100010001000100010001 )
1#
#218000
0#
#219000
b10001000100010001000100010001 )
b1101 .
1#
#220000
0#
#221000
b1110 .
1#
#222000
0#
#223000
b1111 .
1#
#224000
0#
1$
