Pre/Verilog_Circ/Sequential_Logic.vcd
$date
	Fri Sep 17 13:58:20 2021
$end
$version
	Icarus Verilog
$end
$timescale
	1ns
$end
$scope module Sequential_Logic_tb $end
$var wire 1 ! ans $end
$var reg 1 " clk $end
$var reg 2 # num [1:0] $end
$scope module test $end
$var wire 1 " clk $end
$var wire 2 $ num [1:0] $end
$var wire 1 ! ans $end
$var reg 2 % next_status [1:0] $end
$var reg 2 & status [1:0] $end
$upscope $end
$upscope $end
$enddefinitions $end
#0
$dumpvars
b0x &
b1 %
b1 $
b1 #
1"
0!
$end
#1
b11 #
b11 $
#10
0"
#20
b0 %
b1 &
1"
#21
b1 %
b1 #
b1 $
#30
0"
#40
1"
#41
b10 %
b10 #
b10 $
#50
0"
#60
b10 &
1"
#61
b11 %
b11 #
b11 $
#70
0"
#80
1!
b11 &
1"
#81
b1 %
b1 #
b1 $
#90
0"
#100
0!
b1 &
1"
#101
b0 %
b11 #
b11 $
#110
0"
#120
b0 &
1"
#130
0"
#140
1"
#141
b10 #
b10 $
#150
0"
#160
1"
#161
b1 %
b1 #
b1 $
#170
0"
#180
b1 &
1"
#181
b10 %
b10 #
b10 $
#190
0"
#200
b10 &
1"
#201
b1 %
b1 #
b1 $
#210
0"
#220
b1 &
1"
#221
b0 %
b11 #
b11 $
#230
0"
#240
b0 &
1"
#241
b1 %
b1 #
b1 $
#250
0"
#260
b1 &
1"
#261
b10 %
b10 #
b10 $
#270
0"
#280
b10 &
1"
#290
0"
#300
1"
#301
b1 %
b1 #
b1 $
#310
0"
#320
b1 &
1"
#321
b10 %
b10 #
b10 $
#330
0"
#340
b10 &
1"
#341
b1 %
b1 #
b1 $
#350
0"
#360
b1 &
1"
#370
0"
#380
1"
#390
0"
#400
1"
#401
b0 %
b11 #
b11 $
#410
0"
#420
b0 &
1"
#421
b1 %
b1 #
b1 $
#430
0"
#440
b1 &
1"
#450
0"
#460
1"
#470
0"
#480
1"
#481
b10 %
b10 #
b10 $
#490
0"
#500
b10 &
1"
#510
0"
#520
1"
#521
b11 %
b11 #
b11 $
#530
0"
#540
1!
b11 &
1"
#550
0"
#560
1"
#561
b0 %
b10 #
b10 $
#570
0"
#580
0!
b0 &
1"
#590
0"
#600
1"
#610
0"
#620
1"
#630
0"
#640
1"
#641
b11 #
b11 $
#650
0"
#660
1"
#661
b10 #
b10 $
#670
0"
#680
1"
#681
b1 %
b1 #
b1 $
#690
0"
#700
b1 &
1"
#710
0"
#720
1"
#730
0"
#740
1"
#750
0"
#760
1"
#761
b10 %
b10 #
b10 $
#770
0"
#780
b10 &
1"
#781
b1 %
b1 #
b1 $
#790
0"
#800
b1 &
1"
#810
0"
#820
1"
#821
b10 %
b10 #
b10 $
#830
0"
#840
b10 &
1"
#841
b1 %
b1 #
b1 $
#850
0"
#860
b1 &
1"
#870
0"
#880
1"
#890
0"
#900
1"
#901
b0 %
b11 #
b11 $
#910
0"
#920
b0 &
1"
#930
0"
#940
1"
#950
0"
#960
1"
#961
b10 #
b10 $
#970
0"
#980
1"
#990
0"
#1000
1"
#1001
b11 #
b11 $
#1010
0"
#1020
1"
#1030
0"
#1040
1"
#1041
b10 #
b10 $
#1050
0"
#1060
1"
#1061
b1 %
b1 #
b1 $
#1070
0"
#1080
b1 &
1"
#1081
b0 %
b11 #
b11 $
#1090
0"
#1100
b0 &
1"
#1101
b1 %
b1 #
b1 $
#1110
0"
#1120
b1 &
1"
#1121
b10 %
b10 #
b10 $
#1130
0"
#1140
b10 &
1"
#1150
0"
#1160
1"
#1161
b1 %
b1 #
b1 $
#1170
0"
#1180
b1 &
1"
#1181
b10 %
b10 #
b10 $
#1190
0"
#1200
b10 &
1"
#1210
0"
#1220
1"
#1221
b11 %
b11 #
b11 $
#1230
0"
#1240
1!
b11 &
1"
#1241
b1 %
b1 #
b1 $
#1250
0"
#1260
0!
b1 &
1"
#1261
b0 %
b11 #
b11 $
#1270
0"
#1280
b0 &
1"
#1290
0"
#1300
1"
#1301
b10 #
b10 $
#1310
0"
#1320
1"
#1321
b1 %
b1 #
b1 $
#1330
0"
#1340
b1 &
1"
#1350
0"
#1360
1"
#1370
0"
#1380
1"
#1390
0"
#1400
1"
#1401
b10 %
b10 #
b10 $
#1410
0"
#1420
b10 &
1"
#1430
0"
#1440
1"
#1441
b1 %
b1 #
b1 $
#1450
0"
#1460
b1 &
1"
#1461
b10 %
b10 #
b10 $
#1470
0"
#1480
b10 &
1"
#1490
0"
#1500
1"
#1501
b11 %
b11 #
b11 $
#1510
0"
#1520
1!
b11 &
1"
#1530
0"
#1540
1"
#1541
b0 %
b10 #
b10 $
#1550
0"
#1560
0!
b0 &
1"
#1561
b1 %
b1 #
b1 $
#1570
0"
#1580
b1 &
1"
#1581
b0 %
b11 #
b11 $
#1590
0"
#1600
b0 &
1"
#1610
0"
#1620
1"
#1630
0"
#1640
1"
#1650
0"
#1660
1"
#1661
b1 %
b1 #
b1 $
#1670
0"
#1680
b1 &
1"
#1681
b0 %
b11 #
b11 $
#1690
0"
#1700
b0 &
1"
#1701
b10 #
b10 $
#1710
0"
#1720
1"
#1721
b11 #
b11 $
#1730
0"
#1740
1"
#1741
b1 %
b1 #
b1 $
#1750
0"
#1760
b1 &
1"
#1770
0"
#1780
1"
#1790
0"
#1800
1"
#1801
b10 %
b10 #
b10 $
#1810
0"
#1820
b10 &
1"
#1821
b1 %
b1 #
b1 $
#1830
0"
#1840
b1 &
1"
#1850
0"
#1860
1"
#1861
b10 %
b10 #
b10 $
#1870
0"
#1880
b10 &
1"
#1881
b11 %
b11 #
b11 $
#1890
0"
#1900
1!
b11 &
1"
#1910
0"
#1920
1"
#1921
b1 %
b1 #
b1 $
#1930
0"
#1940
0!
b1 &
1"
#1941
b10 %
b10 #
b10 $
#1950
0"
#1960
b10 &
1"
#1970
0"
#1980
1"
#1981
b11 %
b11 #
b11 $
#1990
0"
#2000
1!
b11 &
1"
#2010
0"
#2020
1"
#2030
0"
#2040
1"
#2050
0"
#2060
1"
#2061
b0 %
b10 #
b10 $
#2070
0"
#2080
0!
b0 &
1"
#2081
b1 %
b1 #
b1 $
#2090
0"
#2100
b1 &
1"
#2101
b10 %
b10 #
b10 $
#2110
0"
#2120
b10 &
1"
#2130
0"
#2140
1"
#2141
b1 %
b1 #
b1 $
#2150
0"
#2160
b1 &
1"
#2161
b0 %
b11 #
b11 $
#2170
0"
#2180
b0 &
1"
#2181
b1 %
b1 #
b1 $
#2190
0"
#2200
b1 &
1"
#2210
0"
#2220
1"
#2221
b10 %
b10 #
b10 $
#2230
0"
#2240
b10 &
1"
#2241
b1 %
b1 #
b1 $
#2250
0"
#2260
b1 &
1"
#2261
b0 %
b11 #
b11 $
#2270
0"
#2280
b0 &
1"
#2290
0"
#2300
1"
#2301
b1 %
b1 #
b1 $
#2310
0"
#2320
b1 &
1"
#2321
b10 %
b10 #
b10 $
#2330
0"
#2340
b10 &
1"
#2341
b11 %
b11 #
b11 $
#2350
0"
#2360
1!
b11 &
1"
#2361
b0 %
b10 #
b10 $
#2370
0"
#2380
0!
b0 &
1"
#2390
0"
#2400
1"
#2401
b11 #
b11 $
#2410
0"
#2420
1"
#2430
0"
#2440
1"
#2441
b10 #
b10 $
#2450
0"
#2460
1"
#2461
b11 #
b11 $
#2470
0"
#2480
1"
#2481
b10 #
b10 $
#2490
0"
#2500
1"
#2501
b11 #
b11 $
#2510
0"
#2520
1"
#2521
b1 %
b1 #
b1 $
#2530
0"
#2540
b1 &
1"
#2541
b10 %
b10 #
b10 $
#2550
0"
#2560
b10 &
1"
#2570
0"
#2580
1"
#2581
b11 %
b11 #
b11 $
#2590
0"
#2600
1!
b11 &
1"
#2601
b1 %
b1 #
b1 $
#2610
0"
#2620
0!
b1 &
1"
#2630
0"
#2640
1"
#2641
b0 %
b11 #
b11 $
#2650
0"
#2660
b0 &
1"
#2670
0"
#2680
1"
#2681
b10 #
b10 $
#2690
0"
#2700
1"
#2701
b1 %
b1 #
b1 $
#2710
0"
#2720
b1 &
1"
#2721
b0 %
b11 #
b11 $
#2730
0"
#2740
b0 &
1"
#2741
b1 %
b1 #
b1 $
#2750
0"
#2760
b1 &
1"
#2761
b0 %
b11 #
b11 $
#2770
0"
#2780
b0 &
1"
#2781
b10 #
b10 $
#2790
0"
#2800
1"
#2801
b11 #
b11 $
#2810
0"
#2820
1"
#2821
b10 #
b10 $
#2830
0"
#2840
1"
#2841
b1 %
b1 #
b1 $
#2850
0"
#2860
b1 &
1"
#2861
b10 %
b10 #
b10 $
#2870
0"
#2880
b10 &
1"
#2890
0"
#2900
1"
#2910
0"
#2920
1"
#2930
0"
#2940
1"
#2950
0"
#2960
1"
#2961
b1 %
b1 #
b1 $
#2970
0"
#2980
b1 &
1"
#2990
0"
#3000
1"
#3010
0"
#3020
1"
#3021
b10 %
b10 #
b10 $
#3030
0"
#3040
b10 &
1"
#3041
b1 %
b1 #
b1 $
#3050
0"
#3060
b1 &
1"
#3070
0"
#3080
1"
#3081
b0 %
b11 #
b11 $
#3090
0"
#3100
b0 &
1"
#3101
b1 %
b1 #
b1 $
#3110
0"
#3120
b1 &
1"
#3121
b0 %
b11 #
b11 $
#3130
0"
#3140
b0 &
1"
#3141
b10 #
b10 $
#3150
0"
#3160
1"
#3161
b11 #
b11 $
#3170
0"
#3180
1"
#3181
b10 #
b10 $
#3190
0"
#3200
1"
#3210
0"
#3220
1"
#3230
0"
#3240
1"
#3241
b11 #
b11 $
#3250
0"
#3260
1"
#3261
b10 #
b10 $
#3270
0"
#3280
1"
#3281
b11 #
b11 $
#3290
0"
#3300
1"
#3301
b10 #
b10 $
#3310
0"
#3320
1"
#3330
0"
#3340
1"
#3341
b11 #
b11 $
#3350
0"
#3360
1"
#3361
b1 %
b1 #
b1 $
#3370
0"
#3380
b1 &
1"
#3381
b10 %
b10 #
b10 $
#3390
0"
#3400
b10 &
1"
#3401
b1 %
b1 #
b1 $
#3410
0"
#3420
b1 &
1"
#3430
0"
#3440
1"
#3441
b0 %
b11 #
b11 $
#3450
0"
#3460
b0 &
1"
#3461
b1 %
b1 #
b1 $
#3470
0"
#3480
b1 &
1"
#3481
b0 %
b11 #
b11 $
#3490
0"
#3500
b0 &
1"
#3501
b10 #
b10 $
#3510
0"
#3520
1"
#3521
b1 %
b1 #
b1 $
#3530
0"
#3540
b1 &
1"
#3541
b0 %
b11 #
b11 $
#3550
0"
#3560
b0 &
1"
#3561
b1 %
b1 #
b1 $
#3570
0"
#3580
b1 &
1"
#3590
0"
#3600
1"
#3601
b10 %
b10 #
b10 $
#3610
0"
#3620
b10 &
1"
#3621
b11 %
b11 #
b11 $
#3630
0"
#3640
1!
b11 &
1"
#3641
b1 %
b1 #
b1 $
#3650
0"
#3660
0!
b1 &
1"
#3661
b0 %
b11 #
b11 $
#3670
0"
#3680
b0 &
1"
#3681
b10 #
b10 $
#3690
0"
#3700
1"
#3701
b1 %
b1 #
b1 $
#3710
0"
#3720
b1 &
1"
#3721
b10 %
b10 #
b10 $
#3730
0"
#3740
b10 &
1"
#3741
b11 %
b11 #
b11 $
#3750
0"
#3760
1!
b11 &
1"
#3761
b1 %
b1 #
b1 $
#3770
0"
#3780
0!
b1 &
1"
#3781
b0 %
b11 #
b11 $
#3790
0"
#3800
b0 &
1"
#3801
b10 #
b10 $
#3810
0"
#3820
1"
#3821
b1 %
b1 #
b1 $
#3830
0"
#3840
b1 &
1"
#3841
b0 %
b11 #
b11 $
#3850
0"
#3860
b0 &
1"
#3870
0"
#3880
1"
#3890
0"
#3900
1"
#3910
0"
#3920
1"
#3921
b1 %
b1 #
b1 $
#3930
0"
#3940
b1 &
1"
#3950
0"
#3960
1"
#3961
b0 %
b11 #
b11 $
#3970
0"
#3980
b0 &
1"
#3990
0"
#4000
1"
#4001
b1 %
b1 #
b1 $
#4010
0"
#4020
b1 &
1"
#4021
b0 %
b11 #
b11 $
#4030
0"
#4040
b0 &
1"
#4050
0"
#4060
1"
#4061
b10 #
b10 $
#4070
0"
#4080
1"
#4090
0"
#4100
1"
#4110
0"
#4120
1"
#4121
b1 %
b1 #
b1 $
#4130
0"
#4140
b1 &
1"
#4150
0"
#4160
1"
#4161
b0 %
b11 #
b11 $
#4170
0"
#4180
b0 &
1"
#4190
0"
#4200
1"
#4210
0"
#4220
1"
#4230
0"
#4240
1"
#4241
b1 %
b1 #
b1 $
#4250
0"
#4260
b1 &
1"
#4261
b10 %
b10 #
b10 $
#4270
0"
#4280
b10 &
1"
#4290
0"
#4300
1"
#4301
b1 %
b1 #
b1 $
#4310
0"
#4320
b1 &
1"
#4321
b10 %
b10 #
b10 $
#4330
0"
#4340
b10 &
1"
#4341
b1 %
b1 #
b1 $
#4350
0"
#4360
b1 &
1"
#4361
b10 %
b10 #
b10 $
#4370
0"
#4380
b10 &
1"
#4381
b1 %
b1 #
b1 $
#4390
0"
#4400
b1 &
1"
#4401
b0 %
b11 #
b11 $
#4410
0"
#4420
b0 &
1"
#4430
0"
#4440
1"
#4441
b1 %
b1 #
b1 $
#4450
0"
#4460
b1 &
1"
#4461
b0 %
b11 #
b11 $
#4470
0"
#4480
b0 &
1"
#4481
b1 %
b1 #
b1 $
#4490
0"
#4500
b1 &
1"
#4510
0"
#4520
1"
#4521
b0 %
b11 #
b11 $
#4530
0"
#4540
b0 &
1"
#4541
b1 %
b1 #
b1 $
#4550
0"
#4560
b1 &
1"
#4561
b0 %
b11 #
b11 $
#4570
0"
#4580
b0 &
1"
#4581
b1 %
b1 #
b1 $
#4590
0"
#4600
b1 &
1"
#4601
b10 %
b10 #
b10 $
#4610
0"
#4620
b10 &
1"
#4621
b1 %
b1 #
b1 $
#4630
0"
#4640
b1 &
1"
#4641
b10 %
b10 #
b10 $
#4650
0"
#4660
b10 &
1"
#4670
0"
#4680
1"
#4681
b1 %
b1 #
b1 $
#4690
0"
#4700
b1 &
1"
#4701
b0 %
b11 #
b11 $
#4710
0"
#4720
b0 &
1"
#4721
b10 #
b10 $
#4730
0"
#4740
1"
#4741
b11 #
b11 $
#4750
0"
#4760
1"
#4761
b1 %
b1 #
b1 $
#4770
0"
#4780
b1 &
1"
#4790
0"
#4800
1"
#4810
0"
#4820
1"
#4830
0"
#4840
1"
#4841
b0 %
b11 #
b11 $
#4850
0"
#4860
b0 &
1"
#4870
0"
#4880
1"
#4881
b10 #
b10 $
#4890
0"
#4900
1"
#4901
b11 #
b11 $
#4910
0"
#4920
1"
#4930
0"
#4940
1"
#4941
b1 %
b1 #
b1 $
#4950
0"
#4960
b1 &
1"
#4961
b0 %
b11 #
b11 $
#4970
0"
#4980
b0 &
1"
#4981
b10 #
b10 $
#4990
0"
#5000
1"
#5010
0"
#5020
1"
#5030
0"
#5040
1"
#5050
0"
#5060
1"
#5061
b1 %
b1 #
b1 $
#5070
0"
#5080
b1 &
1"
#5090
0"
#5100
1"
#5101
b10 %
b10 #
b10 $
#5110
0"
#5120
b10 &
1"
#5121
b11 %
b11 #
b11 $
#5130
0"
#5140
1!
b11 &
1"
#5150
0"
#5160
1"
#5161
b0 %
b10 #
b10 $
#5170
0"
#5180
0!
b0 &
1"
#5181
b11 #
b11 $
#5190
0"
#5200
1"
#5201
b1 %
b1 #
b1 $
#5210
0"
#5220
b1 &
1"
#5221
b0 %
b11 #
b11 $
#5230
0"
#5240
b0 &
1"
#5241
b1 %
b1 #
b1 $
#5250
0"
#5260
b1 &
1"
#5261
b10 %
b10 #
b10 $
#5270
0"
#5280
b10 &
1"
#5281
b1 %
b1 #
b1 $
#5290
0"
#5300
b1 &
1"
#5301
b0 %
b11 #
b11 $
#5310
0"
#5320
b0 &
1"
#5330
0"
#5340
1"
#5341
b10 #
b10 $
#5350
0"
#5360
1"
#5370
0"
#5380
1"
#5390
0"
#5400
1"
#5401
b1 %
b1 #
b1 $
#5410
0"
#5420
b1 &
1"
#5430
0"
#5440
1"
#5441
b0 %
b11 #
b11 $
#5450
0"
#5460
b0 &
1"
#5470
0"
#5480
1"
#5490
0"
#5500
1"
#5510
0"
#5520
1"
#5521
b1 %
b1 #
b1 $
#5530
0"
#5540
b1 &
1"
#5541
b10 %
b10 #
b10 $
#5550
0"
#5560
b10 &
1"
#5561
b11 %
b11 #
b11 $
#5570
0"
#5580
1!
b11 &
1"
#5581
b0 %
b10 #
b10 $
#5590
0"
#5600
0!
b0 &
1"
#5610
0"
#5620
1"
#5630
0"
#5640
1"
#5641
b1 %
b1 #
b1 $
#5650
0"
#5660
b1 &
1"
#5661
b0 %
b11 #
b11 $
#5670
0"
#5680
b0 &
1"
#5681
b1 %
b1 #
b1 $
#5690
0"
#5700
b1 &
1"
#5710
0"
#5720
1"
#5721
b10 %
b10 #
b10 $
#5730
0"
#5740
b10 &
1"
#5750
0"
#5760
1"
#5761
b1 %
b1 #
b1 $
#5770
0"
#5780
b1 &
1"
#5781
b10 %
b10 #
b10 $
#5790
0"
#5800
b10 &
1"
#5810
0"
#5820
1"
#5830
0"
#5840
1"
#5841
b11 %
b11 #
b11 $
#5850
0"
#5860
1!
b11 &
1"
#5861
b1 %
b1 #
b1 $
#5870
0"
#5880
0!
b1 &
1"
#5881
b0 %
b11 #
b11 $
#5890
0"
#5900
b0 &
1"
#5901
b1 %
b1 #
b1 $
#5910
0"
#5920
b1 &
1"
#5921
b10 %
b10 #
b10 $
#5930
0"
#5940
b10 &
1"
#5941
b11 %
b11 #
b11 $
#5950
0"
#5960
1!
b11 &
1"
#5961
b1 %
b1 #
b1 $
#5970
0"
#5980
0!
b1 &
1"
#5981
b10 %
b10 #
b10 $
#5990
0"
#6000
b10 &
1"
